<?xml version="1.0" encoding="UTF-8" standalone="no"?>
<!-- Created with Inkscape (http://www.inkscape.org/) -->

<svg
   version="1.1"
   id="svg1"
   width="163.84"
   height="163.84"
   viewBox="0 0 163.84 163.84"
   sodipodi:docname="app_icon.svg"
   inkscape:version="1.3.2 (091e20ef0f, 2023-11-25, custom)"
   inkscape:export-filename="../fastlane/metadata/android/en-US/images/icon.png"
   inkscape:export-xdpi="175.78125"
   inkscape:export-ydpi="175.78125"
   xmlns:inkscape="http://www.inkscape.org/namespaces/inkscape"
   xmlns:sodipodi="http://sodipodi.sourceforge.net/DTD/sodipodi-0.dtd"
   xmlns="http://www.w3.org/2000/svg"
   xmlns:svg="http://www.w3.org/2000/svg">
  <defs
     id="defs1" />
  <sodipodi:namedview
     id="namedview1"
     pagecolor="#ffffff"
     bordercolor="#000000"
     borderopacity="0.25"
     inkscape:showpageshadow="2"
     inkscape:pageopacity="0.0"
     inkscape:pagecheckerboard="0"
     inkscape:deskcolor="#d1d1d1"
     inkscape:zoom="2.8992132"
     inkscape:cx="35.871801"
     inkscape:cy="80.366632"
     inkscape:window-width="1920"
     inkscape:window-height="1008"
     inkscape:window-x="0"
     inkscape:window-y="0"
     inkscape:window-maximized="1"
     inkscape:current-layer="g1" />
  <g
     inkscape:groupmode="layer"
     inkscape:label="Image"
     id="g1">
    <rect
       style="fill:#76b3eb;stroke:none;stroke-width:5.1;stroke-linecap:round;stroke-linejoin:round;stroke-miterlimit:9.8;stroke-opacity:0.42022;paint-order:markers fill stroke;fill-opacity:1"
       id="rect2"
       width="163.84"
       height="163.84"
       x="0"
       y="0"
       ry="0.32929713"
       inkscape:label="bg" />
    <g
       id="g25"
       transform="matrix(0.7609799,0,0,0.7609799,19.580526,19.306868)">
      <rect
         style="display:inline;opacity:1;fill:#595752;fill-opacity:1;stroke:none;stroke-width:1;stroke-linecap:round;stroke-linejoin:round;stroke-miterlimit:9.8;stroke-dasharray:none;stroke-opacity:1;paint-order:markers fill stroke"
         id="rect31"
         width="72"
         height="85"
         x="45.919998"
         y="38.677002"
         ry="5"
         rx="5"
         inkscape:label="page" />
      <rect
         style="display:inline;opacity:1;fill:#a19f9a;fill-opacity:1;stroke:none;stroke-width:1;stroke-linecap:round;stroke-linejoin:round;stroke-miterlimit:9.8;stroke-dasharray:none;stroke-opacity:1;paint-order:markers fill stroke"
         id="rect30"
         width="72"
         height="85"
         x="45.919998"
         y="46.677002"
         ry="5"
         rx="5"
         inkscape:label="page_shadow" />
      <rect
         style="display:inline;opacity:1;fill:#f6f1e8;fill-opacity:1;stroke:none;stroke-width:1;stroke-linecap:round;stroke-linejoin:round;stroke-miterlimit:9.8;stroke-dasharray:none;stroke-opacity:1;paint-order:markers fill stroke"
         id="rect1"
         width="72"
         height="85"
         x="45.919998"
         y="44.677002"
         ry="5"
         rx="5"
         inkscape:label="page" />
      <rect
         style="opacity:1;fill:#d06c23;fill-opacity:1;stroke:#d06c23;stroke-width:1.6;stroke-linecap:round;stroke-linejoin:round;stroke-miterlimit:9.8;stroke-opacity:1;paint-order:stroke fill markers"
         id="rect25"
         width="6"
         height="8"
         x="48.919975"
         y="33.68222"
         ry="0.32929713" />
      <rect
         style="opacity:1;fill:#d06c23;fill-opacity:1;stroke:#d06c23;stroke-width:1.6;stroke-linecap:round;stroke-linejoin:round;stroke-miterlimit:9.8;stroke-opacity:1;paint-order:stroke fill markers"
         id="rect32"
         width="6"
         height="8"
         x="63.919983"
         y="33.68222"
         ry="0.32929713" />
      <rect
         style="opacity:1;fill:#d06c23;fill-opacity:1;stroke:#d06c23;stroke-width:1.6;stroke-linecap:round;stroke-linejoin:round;stroke-miterlimit:9.8;stroke-opacity:1;paint-order:stroke fill markers"
         id="rect33"
         width="6"
         height="8"
         x="78.919983"
         y="33.68222"
         ry="0.32929713" />
      <rect
         style="opacity:1;fill:#d06c23;fill-opacity:1;stroke:#d06c23;stroke-width:1.6;stroke-linecap:round;stroke-linejoin:round;stroke-miterlimit:9.8;stroke-opacity:1;paint-order:stroke fill markers"
         id="rect34"
         width="6"
         height="8"
         x="93.919983"
         y="33.68222"
         ry="0.32929713" />
      <rect
         style="opacity:1;fill:#d06c23;fill-opacity:1;stroke:#d06c23;stroke-width:1.6;stroke-linecap:round;stroke-linejoin:round;stroke-miterlimit:9.8;stroke-opacity:1;paint-order:stroke fill markers"
         id="rect35"
         width="6"
         height="8"
         x="108.92002"
         y="33.68222"
         ry="0.32929713" />
    </g>
    <g
       id="g35"
       transform="matrix(0.7609799,0,0,0.7609799,19.580526,19.306868)">
      <path
         style="opacity:1;fill:none;fill-opacity:1;stroke:#5a23d0;stroke-width:5.1;stroke-linecap:round;stroke-linejoin:round;stroke-miterlimit:9.8;stroke-dasharray:none;stroke-opacity:0.42022;paint-order:markers fill stroke"
         d="m 87.904695,75.035743 c -1.166543,0.972096 -0.807451,0.546706 -1.745296,1.907852 -1.447267,2.100499 -2.676794,4.347751 -4.000071,6.525723 -1.99943,3.290848 -4.066635,6.566433 -6.189817,9.777751 -2.937224,4.442559 -6.204723,8.665541 -9.181756,13.083971 -1.780752,2.64294 -4.66478,7.38151 -7.176294,9.2249 -1.075943,0.78971 -1.505707,0.7359 -2.872683,1.084"
         id="path29" />
      <path
         style="opacity:1;fill:none;fill-opacity:1;stroke:#5a23d0;stroke-width:5.1;stroke-linecap:round;stroke-linejoin:round;stroke-miterlimit:9.8;stroke-dasharray:none;stroke-opacity:0.42022;paint-order:markers fill stroke"
         d="m 62.917767,83.219998 c 3.237248,4.732269 6.417295,9.521283 8.791494,14.764174 1.660814,3.667538 3.073362,7.441228 4.802263,11.078568 1.261051,2.65305 2.743611,5.21296 4.108474,7.81569"
         id="path30" />
      <path
         style="fill:none;fill-opacity:1;stroke:#5a23d0;stroke-width:5.1;stroke-linecap:round;stroke-linejoin:round;stroke-miterlimit:9.8;stroke-dasharray:none;stroke-opacity:1;paint-order:markers fill stroke"
         d="m 86.875627,74.006673 c -1.16655,0.972096 -0.80745,0.546706 -1.7453,1.907852 -1.44727,2.100499 -2.67679,4.347751 -4.00007,6.525723 -1.99943,3.290848 -4.06664,6.566433 -6.189817,9.777751 -2.937224,4.442559 -6.204723,8.665561 -9.181756,13.083991 -1.780753,2.64294 -4.664781,7.38151 -7.176294,9.2249 -1.075943,0.78971 -1.505707,0.7359 -2.872683,1.084"
         id="path29-2" />
      <path
         style="fill:none;fill-opacity:1;stroke:#5a23d0;stroke-width:5.1;stroke-linecap:round;stroke-linejoin:round;stroke-miterlimit:9.8;stroke-dasharray:none;stroke-opacity:1;paint-order:markers fill stroke"
         d="m 61.888696,82.190928 c 3.237248,4.732269 6.417295,9.521283 8.791494,14.764174 1.660814,3.667558 3.073362,7.441248 4.802267,11.078588 1.26105,2.65305 2.74361,5.21296 4.10847,7.81569"
         id="path30-2" />
    </g>
  </g>
</svg>
